org\uclab\mm\kcl\edkat\service\UserService.class
org\uclab\mm\kcl\edkat\dao\RuleDAO.class
org\uclab\mm\kcl\edkat\controller\UserController.class
org\uclab\mm\kcl\edkat\service\ConclusionServiceImpl.class
org\uclab\mm\kcl\edkat\datamodel\SituationRuleWrapper.class
org\uclab\mm\kcl\edkat\datamodel\dclcommunication\SituationEvents.class
org\uclab\mm\kcl\edkat\dao\SituationDAO.class
org\uclab\mm\kcl\edkat\dao\WellnessConceptsModelDAO.class
org\uclab\mm\kcl\edkat\datamodel\Conclusion.class
org\uclab\mm\kcl\edkat\datamodel\Situations.class
org\uclab\mm\kcl\edkat\service\RuleService.class
org\uclab\mm\kcl\edkat\dao\UserDAOImpl.class
org\uclab\mm\kcl\edkat\service\RuleServiceImpl.class
org\uclab\mm\kcl\edkat\service\ConditionService.class
org\uclab\mm\kcl\edkat\datamodel\Rule.class
org\uclab\mm\kcl\edkat\service\SituationServiceImpl.class
org\uclab\mm\kcl\edkat\datamodel\WellnessConceptsRelationships.class
org\uclab\mm\kcl\edkat\service\WellnessConceptsModelService.class
org\uclab\mm\kcl\edkat\service\ConditionServiceImpl.class
org\uclab\mm\kcl\edkat\dao\ConclusionDAO.class
org\uclab\mm\kcl\edkat\dao\WellnessConceptsModelDAOImpl.class
org\uclab\mm\kcl\edkat\datamodel\Condition.class
org\uclab\mm\kcl\edkat\dao\SituationDAOImpl.class
org\uclab\mm\kcl\edkat\datamodel\User.class
org\uclab\mm\kcl\edkat\datamodel\WellnessConceptsModel.class
org\uclab\mm\kcl\edkat\service\UserServiceImpl.class
org\uclab\mm\kcl\edkat\service\WellnessConceptsModelServiceImpl.class
org\uclab\mm\kcl\edkat\dao\UserDAO.class
org\uclab\mm\kcl\edkat\service\SituationService.class
org\uclab\mm\kcl\edkat\datamodel\dclcommunication\SituationEvent.class
org\uclab\mm\kcl\edkat\dao\ConditionDAO.class
org\uclab\mm\kcl\edkat\service\ConclusionService.class
org\uclab\mm\kcl\edkat\dao\RuleDAOImpl.class
org\uclab\mm\kcl\edkat\controller\RulesController.class
org\uclab\mm\kcl\edkat\dao\ConditionDAOImpl.class
org\uclab\mm\kcl\edkat\controller\WellnessModelController.class
org\uclab\mm\kcl\edkat\dao\ConclusionDAOImpl.class
org\uclab\mm\kcl\edkat\datamodel\dclcommunication\SituationConditions.class
